[
    {
        "id": "47b7b46a.2e288c",
        "type": "tab",
        "label": "Flow 1",
        "disabled": false,
        "info": ""
    },
    {
        "id": "ef2547bc.2a27f",
        "type": "tcp out",
        "z": "47b7b46a.2e288c",
        "host": "",
        "port": "",
        "beserver": "reply",
        "base64": false,
        "end": false,
        "name": "",
        "x": 530,
        "y": 440,
        "wires": []
    },
    {
        "id": "31c54f6e.c65a7",
        "type": "tcp in",
        "z": "47b7b46a.2e288c",
        "name": "",
        "server": "server",
        "host": "",
        "port": "12003",
        "datamode": "stream",
        "datatype": "buffer",
        "newline": "",
        "topic": "",
        "base64": false,
        "x": 140,
        "y": 400,
        "wires": [
            [
                "64dc3fdc.65d1a",
                "a5a63b3a.a45cb8"
            ]
        ]
    },
    {
        "id": "64dc3fdc.65d1a",
        "type": "function",
        "z": "47b7b46a.2e288c",
        "name": "XT1 Acknowledge",
        "func": "var buffer = new Buffer(1);\nbuffer[0] = 0x6;\nmsg.payload = buffer;\nreturn msg;",
        "outputs": 1,
        "noerr": 0,
        "x": 350,
        "y": 440,
        "wires": [
            [
                "ef2547bc.2a27f"
            ]
        ]
    },
    {
        "id": "e985f844.423628",
        "type": "telegram sender",
        "z": "47b7b46a.2e288c",
        "name": "",
        "bot": "",
        "x": 1020,
        "y": 360,
        "wires": [
            []
        ]
    },
    {
        "id": "a5a63b3a.a45cb8",
        "type": "function",
        "z": "47b7b46a.2e288c",
        "name": "Split",
        "func": "let qualifierNo = {\n    '1': 'New Event / opening',\n    '3': 'New Restore / closing',\n    '6': 'Previously reported condition still present (Status report)'\n}\n\n// Zone number from XT1 alarm-panel / should be extracted automatically\nlet zoneNo = {\n    '001': 'Keypad',\n    '002': 'Terrassentür',\n    '003': 'Küche 1',\n    '004': 'Bewegungsmelder',\n    '005': 'Esszimmer1 Tür',\n    '006': 'Esszimmer2 Tür'\n}\n\nlet user = {\n    '014': 'Web / App'\n}\n    \nlet events = {\n  '100': 'Medical',\n  '101': 'Personal Emergency',\n  '102': 'Fail to report in',\n  '110': 'Fire',\n  '111': 'Smoke',\n  '112': 'Combustion',\n  '113': 'Water flow',\n  '114': 'Heat',\n  '115': 'Pull Station',\n  '116': 'Duct',\n  '117': 'Flame',\n  '118': 'Near Alarm',\n  '120': 'Panic',\n  '121': 'Duress',\n  '122': 'Silent',\n  '123': 'Audible',\n  '124': 'Duress – Access granted',\n  '125': 'Duress – Egress granted',\n  '130': 'Burglary',\n  '131': 'Perimeter',\n  '132': 'Interior',\n  '133': '24 Hour (Safe)',\n  '134': 'Entry/Exit',\n  '135': 'Day/night',\n  '136': 'Outdoor',\n  '137': 'Tamper',\n  '138': 'Near alarm',\n  '139': 'Intrusion Verifier',\n  '140': 'General Alarm',\n  '141': 'Polling loop open',\n  '142': 'Polling loop short',\n  '143': 'Expansion module failure',\n  '144': 'Sensor tamper',\n  '145': 'Expansion module tamper',\n  '146': 'Silent Burglary',\n  '147': 'Sensor Supervision Failure',\n  '150': '24 Hour Non-Burglary',\n  '151': 'Gas detected',\n  '152': 'Refrigeration',\n  '153': 'Loss of heat',\n  '154': 'Water Leakage',\n  '155': 'Foil Break',\n  '156': 'Day Trouble',\n  '157': 'Low bottled gas level',\n  '158': 'High temp',\n  '159': 'Low temp',\n  '161': 'Loss of air flow',\n  '162': 'Carbon Monoxide detected',\n  '163': 'Tank level',\n  '200': 'Fire Supervisory',\n  '201': 'Low water pressure',\n  '202': 'Low CO2',\n  '203': 'Gate valve sensor',\n  '204': 'Low water level',\n  '205': 'Pump activated',\n  '206': 'Pump failure',\n  '300': 'System Trouble',\n  '301': 'AC Loss',\n  '302': 'Low system battery',\n  '303': 'RAM Checksum bad',\n  '304': 'ROM checksum bad',\n  '305': 'System reset',\n  '306': 'Panel programming changed',\n  '307': 'Self- test failure',\n  '308': 'System shutdown',\n  '309': 'Battery test failure',\n  '310': 'Ground fault',\n  '311': 'Battery Missing/Dead',\n  '312': 'Power Supply Overcurrent',\n  '313': 'Engineer Reset',\n  '320': 'Sounder/Relay',\n  '321': 'Bell 1',\n  '322': 'Bell 2',\n  '323': 'Alarm relay',\n  '324': 'Trouble relay',\n  '325': 'Reversing relay',\n  '326': 'Notification Appliance Ckt. # 3',\n  '327': 'Notification Appliance Ckt. #4',\n  '330': 'System Peripheral trouble',\n  '331': 'Polling loop open',\n  '332': 'Polling loop short',\n  '333': 'Expansion module failure',\n  '334': 'Repeater failure',\n  '335': 'Local printer out of paper',\n  '336': 'Local printer failure',\n  '337': 'Exp. Module DC Loss',\n  '338': 'Exp. Module Low Batt.',\n  '339': 'Exp. Module Reset',\n  '341': 'Exp. Module Tamper',\n  '342': 'Exp. Module AC Loss',\n  '343': 'Exp. Module self-test fail',\n  '344': 'RF Receiver Jam Detect',\n  '350': 'Communication trouble',\n  '351': 'Telco 1 fault',\n  '352': 'Telco 2 fault',\n  '353': 'Long Range Radio xmitter fault',\n  '354': 'Failure to communicate event',\n  '355': 'Loss of Radio supervision',\n  '356': 'Loss of central polling',\n  '357': 'Long Range Radio VSWR problem',\n  '370': 'Protection loop',\n  '371': 'Protection loop open',\n  '372': 'Protection loop short',\n  '373': 'Fire trouble',\n  '374': 'Exit error alarm (zone)',\n  '375': 'Panic zone trouble',\n  '376': 'Hold-up zone trouble',\n  '377': 'Swinger Trouble',\n  '378': 'Cross-zone Trouble',\n  '380': 'Sensor trouble',\n  '381': 'Loss of supervision - RF',\n  '382': 'Loss of supervision - RPM',\n  '383': 'Sensor tamper',\n  '384': 'RF low battery',\n  '385': 'Smoke detector Hi sensitivity',\n  '386': 'Smoke detector Low sensitivity',\n  '387': 'Intrusion detector Hi sensitivity',\n  '388': 'Intrusion detector Low sensitivity',\n  '389': 'Sensor self-test failure',\n  '391': 'Sensor Watch trouble',\n  '392': 'Drift Compensation Error',\n  '393': 'Maintenance Alert',\n  '400': 'Open/Close',\n  '401': 'O/C by user',\n  '402': 'Group O/C',\n  '403': 'Automatic O/C',\n  '404': 'Late to O/C (Note: use 453, 454 instead )',\n  '405': 'Deferred O/C (Obsolete- do not use )',\n  '406': 'Cancel',\n  '407': 'Remote arm / disarm',\n  '408': 'Quick arm',\n  '409': 'Keyswitch O/C',\n  '441': 'Armed STAY',\n  '442': 'Keyswitch Armed STAY',\n  '450': 'Exception O/C',\n  '451': 'Early O/C',\n  '452': 'Late O/C',\n  '453': 'Failed to Open',\n  '454': 'Failed to Close',\n  '455': 'Auto-arm Failed',\n  '456': 'Partial Arm',\n  '457': 'Exit Error (user)',\n  '458': 'User on Premises',\n  '459': 'Recent Close',\n  '461': 'Wrong Code Entry',\n  '462': 'Legal Code Entry',\n  '463': 'Re-arm after Alarm',\n  '464': 'Auto-arm Time Extended',\n  '465': 'Panic Alarm Reset',\n  '466': 'Service On/Off Premises',\n  '411': 'Callback request made',\n  '412': 'Successful download/access',\n  '413': 'Unsuccessful access',\n  '414': 'System shutdown command received',\n  '415': 'Dialer shutdown command received',\n  '416': 'Successful Upload',\n  '421': 'Access denied',\n  '422': 'Access report by user',\n  '423': 'Forced Access',\n  '424': 'Egress Denied',\n  '425': 'Egress Granted',\n  '426': 'Access Door propped open',\n  '427': 'Access point Door Status Monitor trouble',\n  '428': 'Access point Request To Exit trouble',\n  '429': 'Access program mode entry',\n  '430': 'Access program mode exit',\n  '431': 'Access threat level change',\n  '432': 'Access relay/trigger fail',\n  '433': 'Access RTE shunt',\n  '434': 'Access DSM shunt',\n  '501': 'Access reader disable',\n  '520': 'Sounder/Relay Disable',\n  '521': 'Bell 1 disable',\n  '522': 'Bell 2 disable',\n  '523': 'Alarm relay disable',\n  '524': 'Trouble relay disable',\n  '525': 'Reversing relay disable',\n  '526': 'Notification Appliance Ckt. # 3 disable',\n  '527': 'Notification Appliance Ckt. # 4 disable',\n  '531': 'Module Added',\n  '532': 'Module Removed',\n  '551': 'Dialer disabled',\n  '552': 'Radio transmitter disabled',\n  '553': 'Remote Upload/Download disabled',\n  '570': 'Zone/Sensor bypass',\n  '571': 'Fire bypass',\n  '572': '24 Hour zone bypass',\n  '573': 'Burg. Bypass',\n  '574': 'Group bypass',\n  '575': 'Swinger bypass',\n  '576': 'Access zone shunt',\n  '577': 'Access point bypass',\n  '601': 'Manual trigger test report',\n  '602': 'Periodic test report',\n  '603': 'Periodic RF transmission',\n  '604': 'Fire test',\n  '605': 'Status report to follow',\n  '606': 'Listen- in to follow',\n  '607': 'Walk test mode',\n  '608': 'Periodic test - System Trouble Present',\n  '609': 'Video Xmitter active',\n  '611': 'Point tested OK',\n  '612': 'Point not tested',\n  '613': 'Intrusion Zone Walk Tested',\n  '614': 'Fire Zone Walk Tested',\n  '615': 'Panic Zone Walk Tested',\n  '616': 'Service Request',\n  '621': 'Event Log reset',\n  '622': 'Event Log 50% full',\n  '623': 'Event Log 90% full',\n  '624': 'Event Log overflow',\n  '625': 'Time/Date reset',\n  '626': 'Time/Date inaccurate',\n  '627': 'Program mode entry',\n  '628': 'Program mode exit',\n  '629': '32 Hour Event log marker',\n  '630': 'Schedule change',\n  '631': 'Exception schedule change',\n  '632': 'Access schedule change',\n  '641': 'Senior Watch Trouble',\n  '642': 'Latch-key Supervision',\n  '651': 'Reserved for Ademco Use',\n  '652': 'Reserved for Ademco Use',\n  '653': 'Reserved for Ademco Use',\n  '654': 'System Inactivity',\n  '750': 'Motion detection',\n  '751': 'Motion detection',\n};\n\nfunction getEventText(event) {\n  let eventsOrEmpty = events || ['unknown'];\n  return eventsOrEmpty[event];\n}\n\nfunction getZoneText(event) {\n  let eventsOrEmpty = zoneNo || [event];\n  return eventsOrEmpty[event];\n}\n\nfunction calculateFletcherCheckSum(data, len) {\n    let sum1=0x0, sum2=0x0;\n    let i = 0;\n    while (len) {\n        let tlen = (len > 256) ? 256 : len;\n        len -= tlen;\n        do {\n            sum1 += data[++i];\n            sum1 = (sum1 & 0xFF);\n            sum2 += sum1;\n            sum2 = (sum2 & 0xFF);\n        } while (--tlen);\n    }\n    return (sum2 << 8 | sum1).toString(16).toUpperCase();\n}\n\nlet reg = /^\\[(.+) 18(.)(.{3})(.{2})(.{3})(.{4})\\]/gm;\nlet match = reg.exec(msg.payload);\nlet cid = null;\nif (match) {\n// [1234 18140100014DC0E]\n// [<ACCT> <MT><QXYZ><GG><CCC><S1><S2><S3><S4>]\n    cid = {\n        data: msg.payload, \n        subscriber: match[1].trim(),\n        qualifier: match[2],\n        event: match[3],\n        eventtext: getEventText(match[3]),\n        group: match[4],\n        sensor: match[5],\n        checksum: match[6],\n        valid: calculateFletcherCheckSum(msg.payload, 16) == (match[6]),\n        messageText: \"XT1 contact you\\nEvent: \" +\n        match[3] + \" (\" + getEventText(match[3]) + \")\\nChanged to: \" +\n        qualifierNo[match[2]] + \"\\n\" + (match[3] == ('401') ? \"User: \" : \"Zone: \") +\n        (match[3] == ('401') ? user[match[5]] : getZoneText(match[5]))\n    };\n}\n\nmsg.cid = cid; \nmsg.payload = cid.messageText;\nreturn msg;",
        "outputs": 1,
        "noerr": 0,
        "x": 310,
        "y": 360,
        "wires": [
            [
                "421c88eb.dd1d",
                "9f2b9bb8.419758"
            ]
        ]
    },
    {
        "id": "9f2b9bb8.419758",
        "type": "function",
        "z": "47b7b46a.2e288c",
        "name": "Send to [chatId]",
        "func": "var message = msg.payload\nmsg.payload = {};\nmsg.payload.chatId = \"[chatID]\";\nmsg.payload.type = \"message\"\nmsg.payload.content = message\nreturn msg;",
        "outputs": 1,
        "noerr": 0,
        "x": 770,
        "y": 360,
        "wires": [
            [
                "e985f844.423628"
            ]
        ],
        "outputLabels": [
            "msg"
        ]
    },
    {
        "id": "421c88eb.dd1d",
        "type": "switch",
        "z": "47b7b46a.2e288c",
        "name": "Is Arm / Disarm",
        "property": "cid.event",
        "propertyType": "msg",
        "rules": [
            {
                "t": "regex",
                "v": "4[0-9][0-9]",
                "vt": "str",
                "case": false
            }
        ],
        "checkall": "true",
        "repair": false,
        "outputs": 1,
        "x": 520,
        "y": 260,
        "wires": [
            [
                "eb380342.b3ac38",
                "326016e5.442b3a"
            ]
        ]
    },
    {
        "id": "eb380342.b3ac38",
        "type": "switch",
        "z": "47b7b46a.2e288c",
        "name": "Is arm",
        "property": "cid.qualifier",
        "propertyType": "msg",
        "rules": [
            {
                "t": "eq",
                "v": "3",
                "vt": "str"
            }
        ],
        "checkall": "true",
        "repair": false,
        "outputs": 1,
        "x": 710,
        "y": 280,
        "wires": [
            [
                "263cd7c7.d06188"
            ]
        ]
    },
    {
        "id": "326016e5.442b3a",
        "type": "switch",
        "z": "47b7b46a.2e288c",
        "name": "Is disarm",
        "property": "cid.qualifier",
        "propertyType": "msg",
        "rules": [
            {
                "t": "eq",
                "v": "1",
                "vt": "str"
            }
        ],
        "checkall": "true",
        "repair": false,
        "outputs": 1,
        "x": 720,
        "y": 240,
        "wires": [
            [
                "b0c5118e.e5d788"
            ]
        ]
    },
    {
        "id": "263cd7c7.d06188",
        "type": "http request",
        "z": "47b7b46a.2e288c",
        "name": "Enable mail",
        "method": "GET",
        "ret": "txt",
        "paytoqs": false,
        "url": "https://[local-ip]:443/cgi-bin/configManager.cgi?action=setConfig&MotionDetect[0].EventHandler.MailEnable=true",
        "tls": "6d7746d0.ec86a8",
        "persist": false,
        "proxy": "",
        "authType": "basic",
        "x": 890,
        "y": 280,
        "wires": [
            []
        ]
    },
    {
        "id": "b0c5118e.e5d788",
        "type": "http request",
        "z": "47b7b46a.2e288c",
        "name": "Disable mail",
        "method": "GET",
        "ret": "txt",
        "paytoqs": false,
        "url": "https://[local-ip]:443/cgi-bin/configManager.cgi?action=setConfig&MotionDetect[0].EventHandler.MailEnable=false",
        "tls": "6d7746d0.ec86a8",
        "persist": false,
        "proxy": "",
        "authType": "basic",
        "x": 890,
        "y": 240,
        "wires": [
            []
        ]
    },
    {
        "id": "d8d94de5.d8297",
        "type": "telegram command",
        "z": "47b7b46a.2e288c",
        "name": "",
        "command": "/mailoff",
        "bot": "",
        "strict": false,
        "hasresponse": false,
        "x": 710,
        "y": 200,
        "wires": [
            [
                "b0c5118e.e5d788"
            ]
        ]
    },
    {
        "id": "41c67fb1.07dee",
        "type": "telegram command",
        "z": "47b7b46a.2e288c",
        "name": "",
        "command": "/mailon",
        "bot": "",
        "strict": false,
        "hasresponse": false,
        "x": 710,
        "y": 320,
        "wires": [
            [
                "263cd7c7.d06188"
            ]
        ]
    },
    {
        "id": "132c66a9.2906b1",
        "type": "comment",
        "z": "47b7b46a.2e288c",
        "name": "Nützliche XT1 / LE201 Dinge",
        "info": "Lupus is ARM\nhttp://alarm-panel/action/panelCondGet\nYML\n\nAktivieren / deaktivieren der Mail oder nicht.\nhttps://le201-ip/cgi-bin/configManager.cgi?action=setConfig&MotionDetect[0].EventHandler.MailEnable=false\n",
        "x": 940,
        "y": 760,
        "wires": []
    },
    {
        "id": "e3011335.82aaf",
        "type": "telegram command",
        "z": "47b7b46a.2e288c",
        "name": "",
        "command": "/arm",
        "bot": "",
        "strict": false,
        "hasresponse": false,
        "x": 90,
        "y": 160,
        "wires": [
            [
                "ea8f25a4.ae1118"
            ]
        ]
    },
    {
        "id": "a302145f.c2f7b",
        "type": "http request",
        "z": "47b7b46a.2e288c",
        "name": "",
        "method": "POST",
        "ret": "txt",
        "paytoqs": false,
        "url": "http://alarm-panel/action/panelCondPost",
        "tls": "",
        "persist": false,
        "proxy": "",
        "authType": "basic",
        "x": 770,
        "y": 100,
        "wires": [
            [
                "376d7f63.6b87a8"
            ]
        ]
    },
    {
        "id": "95f6dd57.857c38",
        "type": "function",
        "z": "47b7b46a.2e288c",
        "name": "prepare header",
        "func": "msg.headers = {}\nmsg.headers[\"content-type\"] = \"application/x-www-form-urlencoded\"\nmsg.headers[\"X-Requested-With\"] = \"XMLHttpRequest\"\nreturn msg",
        "outputs": 1,
        "noerr": 0,
        "x": 540,
        "y": 100,
        "wires": [
            [
                "a302145f.c2f7b"
            ]
        ]
    },
    {
        "id": "376d7f63.6b87a8",
        "type": "debug",
        "z": "47b7b46a.2e288c",
        "name": "",
        "active": true,
        "tosidebar": true,
        "console": false,
        "tostatus": false,
        "complete": "false",
        "x": 990,
        "y": 100,
        "wires": []
    },
    {
        "id": "479698fa.963d9",
        "type": "telegram command",
        "z": "47b7b46a.2e288c",
        "name": "",
        "command": "/disarm",
        "bot": "",
        "strict": false,
        "hasresponse": false,
        "x": 90,
        "y": 100,
        "wires": [
            [
                "cdbca3b2.d65cd8"
            ]
        ]
    },
    {
        "id": "7a1aa16b.b2269",
        "type": "telegram command",
        "z": "47b7b46a.2e288c",
        "name": "",
        "command": "/home",
        "bot": "",
        "strict": false,
        "hasresponse": false,
        "x": 90,
        "y": 40,
        "wires": [
            [
                "b5209690.423c78"
            ]
        ]
    },
    {
        "id": "b5209690.423c78",
        "type": "function",
        "z": "47b7b46a.2e288c",
        "name": "mode=1 (home)",
        "func": "msg.payload = \"mode=1\"\nreturn msg",
        "outputs": 1,
        "noerr": 0,
        "x": 280,
        "y": 40,
        "wires": [
            [
                "95f6dd57.857c38"
            ]
        ]
    },
    {
        "id": "cdbca3b2.d65cd8",
        "type": "function",
        "z": "47b7b46a.2e288c",
        "name": "mode=2 (disarm)",
        "func": "msg.payload = \"mode=2\"\nreturn msg",
        "outputs": 1,
        "noerr": 0,
        "x": 290,
        "y": 100,
        "wires": [
            [
                "95f6dd57.857c38"
            ]
        ]
    },
    {
        "id": "ea8f25a4.ae1118",
        "type": "function",
        "z": "47b7b46a.2e288c",
        "name": "mode=2 (arm)",
        "func": "msg.payload = \"mode=0\"\nreturn msg",
        "outputs": 1,
        "noerr": 0,
        "x": 280,
        "y": 160,
        "wires": [
            [
                "95f6dd57.857c38"
            ]
        ]
    },
    {
        "id": "6d7746d0.ec86a8",
        "type": "tls-config",
        "z": "",
        "name": "",
        "cert": "",
        "key": "",
        "ca": "",
        "certname": "",
        "keyname": "",
        "caname": "",
        "servername": "",
        "verifyservercert": false
    }
]
